{
    "BusinessShortCode": "174379",
    "Password": "bfb279f9aa9bdbcf158e97dd71a467cd2e0c893059b10f78e6b72ada1ed2c919",
    "Timestamp": "20181015153455",
    "TransactionType": "CustomerPayBillOnline",
    "Amount": "200",
    "PartyA": "254716199678",
    "PartyB": "174379",
    "PhoneNumber": "0716199678",
    "CallBackURL": "https://mpesa-payment-app.herokuapp.com/mpesaConfirmation/confirm/con",
    "AccountReference": "Account",
    "TransactionDesc": "Ticket"
}